0
SECTION
2
HEADER
9
$INSUNITS
70
4
9
$ACADVER
1
AC1014
9
$HANDSEED
5
FFFF
0
ENDSEC
0
SECTION
2
TABLES
0
TABLE
2
VPORT
5
8
100
AcDbSymbolTable
0
ENDTAB
0
TABLE
2
LTYPE
5
5
100
AcDbSymbolTable
0
LTYPE
5
14
100
AcDbSymbolTableRecord
100
AcDbLinetypeTableRecord
2
BYBLOCK
70
0
0
LTYPE
5
15
100
AcDbSymbolTableRecord
100
AcDbLinetypeTableRecord
2
BYLAYER
70
0
0
ENDTAB
0
TABLE
2
LAYER
5
2
100
AcDbSymbolTable
70
2
0
LAYER
5
50
100
AcDbSymbolTableRecord
100
AcDbLayerTableRecord
2
0
70
0
6
CONTINUOUS
0
ENDTAB
0
TABLE
2
STYLE
5
3
100
AcDbSymbolTable
70
1
0
STYLE
5
11
100
AcDbSymbolTableRecord
100
AcDbTextStyleTableRecord
2
STANDARD
70
0
0
ENDTAB
0
TABLE
2
VIEW
5
6
100
AcDbSymbolTable
70
0
0
ENDTAB
0
TABLE
2
UCS
5
7
100
AcDbSymbolTable
70
0
0
ENDTAB
0
TABLE
2
APPID
5
9
100
AcDbSymbolTable
70
2
0
APPID
5
12
100
AcDbSymbolTableRecord
100
AcDbRegAppTableRecord
2
ACAD
70
0
0
ENDTAB
0
TABLE
2
DIMSTYLE
5
A
100
AcDbSymbolTable
70
1
0
ENDTAB
0
TABLE
2
BLOCK_RECORD
5
1
100
AcDbSymbolTable
70
1
0
BLOCK_RECORD
5
1F
100
AcDbSymbolTableRecord
100
AcDbBlockTableRecord
2
*MODEL_SPACE
0
BLOCK_RECORD
5
1B
100
AcDbSymbolTableRecord
100
AcDbBlockTableRecord
2
*PAPER_SPACE
0
ENDTAB
0
ENDSEC
0
SECTION
2
BLOCKS
0
BLOCK
5
20
100
AcDbEntity
100
AcDbBlockBegin
2
*MODEL_SPACE
0
ENDBLK
5
21
100
AcDbEntity
100
AcDbBlockEnd
0
BLOCK
5
1C
100
AcDbEntity
100
AcDbBlockBegin
2
*PAPER_SPACE
0
ENDBLK
5
1D
100
AcDbEntity
100
AcDbBlockEnd
0
ENDSEC
0
SECTION
2
ENTITIES
0
LWPOLYLINE
5
100
100
AcDbEntity
8
0
100
AcDbPolyline
90
8
70
1
43
0.0
10
32.999999999999993
20
15.000000000000011
42
-0.41421356237309509
10
35.000000000000007
20
13
10
34.999999999999993
20
12
42
-0.4142135623730957
10
32.999999999999986
20
10.000000000000002
10
7.0000000000000018
20
10
42
-0.4142135623730957
10
5
20
12.000000000000002
10
5
20
13.000000000000004
42
-0.4142135623730947
10
7.0000000000000018
20
15
0
LWPOLYLINE
5
101
100
AcDbEntity
8
0
100
AcDbPolyline
90
8
70
1
43
0.0
10
4.9999999999999982
20
38
42
-0.41421356237309437
10
7.0000000000000018
20
40
10
32.999999999999993
20
40.000000000000007
42
-0.41421356237309509
10
35.000000000000007
20
38
10
34.999999999999993
20
37
42
-0.4142135623730957
10
32.999999999999986
20
35
10
7.0000000000000018
20
35
42
-0.41421356237309537
10
5
20
37
0
LWPOLYLINE
5
102
100
AcDbEntity
8
0
100
AcDbPolyline
90
8
70
1
43
0.0
10
4.9999999999999982
20
63.000000000000007
42
-0.4142135623730937
10
7.0000000000000018
20
65
10
32.999999999999993
20
65.000000000000014
42
-0.41421356237309509
10
35.000000000000007
20
63
10
34.999999999999993
20
62.000000000000014
42
-0.4142135623730957
10
32.999999999999986
20
60
10
7.0000000000000018
20
60
42
-0.41421356237309537
10
5
20
62
0
LWPOLYLINE
5
103
100
AcDbEntity
8
0
100
AcDbPolyline
90
8
70
1
43
0.0
10
5.0000000000000071
20
88
42
-0.41421356237309509
10
7.0000000000000018
20
90
10
32.999999999999993
20
90.000000000000014
42
-0.41421356237309509
10
35.000000000000007
20
88
10
34.999999999999986
20
87
42
-0.4142135623730957
10
32.999999999999986
20
85
10
7.0000000000000018
20
85
42
-0.41421356237309537
10
5
20
87
0
LWPOLYLINE
5
104
100
AcDbEntity
8
0
100
AcDbPolyline
90
8
70
1
43
0.0
10
5.0000000000000071
20
113
42
-0.41421356237309509
10
7.0000000000000018
20
115
10
32.999999999999993
20
115.00000000000001
42
-0.41421356237309509
10
35.000000000000007
20
113
10
34.999999999999986
20
112
42
-0.4142135623730957
10
32.999999999999986
20
110
10
7.0000000000000018
20
110
42
-0.41421356237309537
10
5
20
112
0
LWPOLYLINE
5
105
100
AcDbEntity
8
0
100
AcDbPolyline
90
8
70
1
43
0.0
10
5.0000000000000071
20
138
42
-0.41421356237309509
10
7.0000000000000018
20
140
10
32.999999999999993
20
140.00000000000003
42
-0.41421356237309509
10
35.000000000000007
20
138
10
34.999999999999986
20
137
42
-0.4142135623730957
10
32.999999999999986
20
135
10
7.0000000000000018
20
135
42
-0.41421356237309537
10
5
20
137
0
LWPOLYLINE
5
106
100
AcDbEntity
8
0
100
AcDbPolyline
90
8
70
1
43
0.0
10
5.0000000000000071
20
163
42
-0.41421356237309509
10
7.0000000000000018
20
165
10
32.999999999999993
20
165
42
-0.41421356237309509
10
35.000000000000007
20
163
10
34.999999999999986
20
162
42
-0.4142135623730957
10
32.999999999999986
20
160
10
7.0000000000000018
20
160
42
-0.41421356237309537
10
5
20
162
0
LWPOLYLINE
5
107
100
AcDbEntity
8
0
100
AcDbPolyline
90
8
70
1
43
0.0
10
5.0000000000000071
20
188
42
-0.41421356237309509
10
7.0000000000000018
20
190
10
32.999999999999993
20
190
42
-0.41421356237309509
10
35.000000000000007
20
188
10
34.999999999999986
20
187
42
-0.4142135623730957
10
32.999999999999986
20
185
10
7.0000000000000018
20
185
42
-0.41421356237309537
10
5
20
187
0
LWPOLYLINE
5
108
100
AcDbEntity
8
0
100
AcDbPolyline
90
8
70
1
43
0.0
10
5.0000000000000071
20
213
42
-0.41421356237309509
10
7.0000000000000018
20
215
10
32.999999999999993
20
215
42
-0.41421356237309509
10
35.000000000000007
20
213
10
34.999999999999986
20
212
42
-0.4142135623730957
10
32.999999999999986
20
210
10
7.0000000000000018
20
210
42
-0.41421356237309537
10
5
20
212
0
LWPOLYLINE
5
109
100
AcDbEntity
8
0
100
AcDbPolyline
90
8
70
1
43
0.0
10
5.0000000000000071
20
238
42
-0.41421356237309509
10
7.0000000000000018
20
240
10
32.999999999999993
20
240
42
-0.41421356237309509
10
35.000000000000007
20
238
10
34.999999999999986
20
237
42
-0.4142135623730957
10
32.999999999999986
20
235
10
7.0000000000000018
20
235
42
-0.41421356237309537
10
5
20
237
0
LWPOLYLINE
5
110
100
AcDbEntity
8
0
100
AcDbPolyline
90
8
70
1
43
0.0
10
5.0000000000000071
20
263
42
-0.41421356237309509
10
7.0000000000000018
20
265
10
32.999999999999993
20
265
42
-0.41421356237309509
10
35.000000000000007
20
263
10
34.999999999999986
20
262
42
-0.4142135623730957
10
32.999999999999986
20
260
10
7.0000000000000018
20
260
42
-0.41421356237309537
10
5
20
262
0
LWPOLYLINE
5
111
100
AcDbEntity
8
0
100
AcDbPolyline
90
8
70
1
43
0.0
10
5.0000000000000071
20
288
42
-0.41421356237309509
10
7.0000000000000018
20
290
10
32.999999999999993
20
290
42
-0.41421356237309509
10
35.000000000000007
20
288
10
34.999999999999986
20
287
42
-0.4142135623730957
10
32.999999999999986
20
285
10
7.0000000000000018
20
285
42
-0.41421356237309537
10
5
20
287
0
LWPOLYLINE
5
112
100
AcDbEntity
8
0
100
AcDbPolyline
90
8
70
1
43
0.0
10
5.0000000000000071
20
313
42
-0.41421356237309509
10
7.0000000000000018
20
315
10
32.999999999999993
20
315
42
-0.41421356237309509
10
35.000000000000007
20
313
10
34.999999999999986
20
312
42
-0.4142135623730957
10
32.999999999999986
20
310
10
7.0000000000000018
20
310
42
-0.41421356237309537
10
5
20
312
0
LWPOLYLINE
5
113
100
AcDbEntity
8
0
100
AcDbPolyline
90
8
70
1
43
0.0
10
4.9999999999999716
20
338
42
-0.41421356237309509
10
7.0000000000000018
20
340
10
32.999999999999993
20
340
42
-0.41421356237309509
10
35.000000000000007
20
338
10
35.000000000000021
20
337
42
-0.4142135623730957
10
32.999999999999986
20
335
10
7.0000000000000018
20
335
42
-0.41421356237309537
10
5
20
337
0
LWPOLYLINE
5
114
100
AcDbEntity
8
0
100
AcDbPolyline
90
8
70
1
43
0.0
10
4.9999999999999716
20
363
42
-0.41421356237309509
10
7.0000000000000018
20
365
10
32.999999999999993
20
365
42
-0.41421356237309509
10
35.000000000000007
20
363
10
35.000000000000021
20
362
42
-0.4142135623730957
10
32.999999999999986
20
360
10
7.0000000000000018
20
360
42
-0.41421356237309537
10
5
20
362
0
LWPOLYLINE
5
115
100
AcDbEntity
8
0
100
AcDbPolyline
90
8
70
1
43
0.0
10
4.9999999999999716
20
388
42
-0.41421356237309509
10
7.0000000000000018
20
390
10
32.999999999999993
20
390
42
-0.41421356237309509
10
35.000000000000007
20
388
10
35.000000000000021
20
387
42
-0.4142135623730957
10
32.999999999999986
20
385
10
7.0000000000000018
20
385
42
-0.41421356237309537
10
5
20
387
0
LWPOLYLINE
5
116
100
AcDbEntity
8
0
100
AcDbPolyline
90
8
70
1
43
0.0
10
4.9999999999999716
20
413
42
-0.41421356237309509
10
7.0000000000000018
20
415
10
32.999999999999993
20
415
42
-0.41421356237309509
10
35.000000000000007
20
413
10
35.000000000000021
20
412
42
-0.4142135623730957
10
32.999999999999986
20
410
10
7.0000000000000018
20
410
42
-0.41421356237309537
10
5
20
412
0
LWPOLYLINE
5
117
100
AcDbEntity
8
0
100
AcDbPolyline
90
8
70
1
43
0.0
10
4.9999999999999716
20
438
42
-0.41421356237309509
10
7.0000000000000018
20
440
10
32.999999999999993
20
440
42
-0.41421356237309509
10
35.000000000000007
20
438
10
35.000000000000021
20
437
42
-0.4142135623730957
10
32.999999999999986
20
435
10
7.0000000000000018
20
435
42
-0.41421356237309537
10
5
20
437
0
LWPOLYLINE
5
118
100
AcDbEntity
8
0
100
AcDbPolyline
90
8
70
1
43
0.0
10
4.9999999999999716
20
463
42
-0.41421356237309509
10
7.0000000000000018
20
465
10
32.999999999999993
20
465
42
-0.41421356237309509
10
35.000000000000007
20
463
10
35.000000000000021
20
462
42
-0.4142135623730957
10
32.999999999999986
20
460
10
7.0000000000000018
20
460
42
-0.41421356237309537
10
5
20
462
0
LWPOLYLINE
5
119
100
AcDbEntity
8
0
100
AcDbPolyline
90
8
70
1
43
0.0
10
4.9999999999999716
20
488
42
-0.41421356237309509
10
7.0000000000000018
20
490
10
32.999999999999993
20
490
42
-0.41421356237309509
10
35.000000000000007
20
488
10
35.000000000000021
20
487
42
-0.4142135623730957
10
32.999999999999986
20
485
10
7.0000000000000018
20
485
42
-0.41421356237309537
10
5
20
487
0
LWPOLYLINE
5
120
100
AcDbEntity
8
0
100
AcDbPolyline
90
8
70
1
43
0.0
10
4.9999999999999716
20
513
42
-0.41421356237309509
10
7.0000000000000018
20
515
10
32.999999999999993
20
515
42
-0.41421356237309509
10
35.000000000000007
20
513
10
35.000000000000021
20
512
42
-0.4142135623730957
10
32.999999999999986
20
510
10
7.0000000000000018
20
510
42
-0.41421356237309537
10
5
20
512
0
LWPOLYLINE
5
121
100
AcDbEntity
8
0
100
AcDbPolyline
90
8
70
1
43
0.0
10
4.9999999999999716
20
538
42
-0.41421356237309509
10
7.0000000000000018
20
540
10
32.999999999999993
20
540
42
-0.41421356237309509
10
35.000000000000007
20
538
10
35.000000000000021
20
537
42
-0.4142135623730957
10
32.999999999999986
20
535
10
7.0000000000000018
20
535
42
-0.41421356237309537
10
5
20
537
0
LWPOLYLINE
5
122
100
AcDbEntity
8
0
100
AcDbPolyline
90
8
70
1
43
0.0
10
4.9999999999999716
20
563
42
-0.41421356237309509
10
7.0000000000000018
20
565
10
32.999999999999993
20
565
42
-0.41421356237309509
10
35.000000000000007
20
563
10
35.000000000000021
20
562
42
-0.4142135623730957
10
32.999999999999986
20
560
10
7.0000000000000018
20
560
42
-0.41421356237309537
10
5
20
562
0
LWPOLYLINE
5
123
100
AcDbEntity
8
0
100
AcDbPolyline
90
8
70
1
43
0.0
10
4.9999999999999716
20
588
42
-0.41421356237309509
10
7.0000000000000018
20
590
10
32.999999999999993
20
590
42
-0.41421356237309509
10
35.000000000000007
20
588
10
35.000000000000021
20
587
42
-0.4142135623730957
10
32.999999999999986
20
585
10
7.0000000000000018
20
585
42
-0.41421356237309537
10
5
20
587
0
LWPOLYLINE
5
124
100
AcDbEntity
8
0
100
AcDbPolyline
90
4
70
1
43
0.0
10
55
20
-15
10
55
20
615
10
-14.999999999999662
20
615
10
-15.000000000000018
20
-15
0
ENDSEC
0
SECTION
2
OBJECTS
0
DICTIONARY
5
C
100
AcDbDictionary
3
ACAD_GROUP
350
D
3
ACAD_MLINESTYLE
350
17
0
DICTIONARY
5
D
100
AcDbDictionary
0
DICTIONARY
5
1A
330
C
100
AcDbDictionary
0
DICTIONARY
5
17
100
AcDbDictionary
0
ENDSEC
0
EOF
