0
SECTION
2
HEADER
9
$INSUNITS
70
4
9
$ACADVER
1
AC1014
9
$HANDSEED
5
FFFF
0
ENDSEC
0
SECTION
2
TABLES
0
TABLE
2
VPORT
5
8
100
AcDbSymbolTable
0
ENDTAB
0
TABLE
2
LTYPE
5
5
100
AcDbSymbolTable
0
LTYPE
5
14
100
AcDbSymbolTableRecord
100
AcDbLinetypeTableRecord
2
BYBLOCK
70
0
0
LTYPE
5
15
100
AcDbSymbolTableRecord
100
AcDbLinetypeTableRecord
2
BYLAYER
70
0
0
ENDTAB
0
TABLE
2
LAYER
5
2
100
AcDbSymbolTable
70
2
0
LAYER
5
50
100
AcDbSymbolTableRecord
100
AcDbLayerTableRecord
2
0
70
0
6
CONTINUOUS
0
ENDTAB
0
TABLE
2
STYLE
5
3
100
AcDbSymbolTable
70
1
0
STYLE
5
11
100
AcDbSymbolTableRecord
100
AcDbTextStyleTableRecord
2
STANDARD
70
0
0
ENDTAB
0
TABLE
2
VIEW
5
6
100
AcDbSymbolTable
70
0
0
ENDTAB
0
TABLE
2
UCS
5
7
100
AcDbSymbolTable
70
0
0
ENDTAB
0
TABLE
2
APPID
5
9
100
AcDbSymbolTable
70
2
0
APPID
5
12
100
AcDbSymbolTableRecord
100
AcDbRegAppTableRecord
2
ACAD
70
0
0
ENDTAB
0
TABLE
2
DIMSTYLE
5
A
100
AcDbSymbolTable
70
1
0
ENDTAB
0
TABLE
2
BLOCK_RECORD
5
1
100
AcDbSymbolTable
70
1
0
BLOCK_RECORD
5
1F
100
AcDbSymbolTableRecord
100
AcDbBlockTableRecord
2
*MODEL_SPACE
0
BLOCK_RECORD
5
1B
100
AcDbSymbolTableRecord
100
AcDbBlockTableRecord
2
*PAPER_SPACE
0
ENDTAB
0
ENDSEC
0
SECTION
2
BLOCKS
0
BLOCK
5
20
100
AcDbEntity
100
AcDbBlockBegin
2
*MODEL_SPACE
0
ENDBLK
5
21
100
AcDbEntity
100
AcDbBlockEnd
0
BLOCK
5
1C
100
AcDbEntity
100
AcDbBlockBegin
2
*PAPER_SPACE
0
ENDBLK
5
1D
100
AcDbEntity
100
AcDbBlockEnd
0
ENDSEC
0
SECTION
2
ENTITIES
0
LWPOLYLINE
5
100
100
AcDbEntity
8
0
100
AcDbPolyline
90
8
70
1
43
0.0
10
32.999999999999993
20
15.000000000000011
42
-0.41421356237309509
10
35.000000000000007
20
13
10
34.999999999999993
20
12
42
-0.4142135623730957
10
32.999999999999986
20
10.000000000000002
10
7.0000000000000018
20
10
42
-0.4142135623730957
10
5
20
12.000000000000002
10
5
20
13.000000000000004
42
-0.4142135623730947
10
7.0000000000000018
20
15
0
LWPOLYLINE
5
101
100
AcDbEntity
8
0
100
AcDbPolyline
90
8
70
1
43
0.0
10
47
20
10
10
72.999999999999986
20
10.000000000000002
42
0.41421356237309509
10
75
20
12
10
75
20
13
42
0.41421356237309509
10
72.999999999999986
20
15
10
47
20
15
42
0.4142135623730947
10
45
20
13.000000000000004
10
45
20
12.000000000000002
42
0.41421356237309537
0
LWPOLYLINE
5
102
100
AcDbEntity
8
0
100
AcDbPolyline
90
8
70
1
43
0.0
10
87
20
10
10
112.99999999999999
20
10.000000000000002
42
0.41421356237309509
10
115
20
12
10
115
20
13
42
0.41421356237309509
10
112.99999999999999
20
15
10
87
20
15
42
0.4142135623730947
10
85
20
13.000000000000004
10
85
20
12.000000000000002
42
0.41421356237309537
0
LWPOLYLINE
5
103
100
AcDbEntity
8
0
100
AcDbPolyline
90
8
70
1
43
0.0
10
7.0000000000000018
20
35
10
32.999999999999986
20
35
42
0.4142135623730957
10
34.999999999999993
20
37
10
35.000000000000007
20
38
42
0.41421356237309509
10
33
20
40
10
7
20
40
42
0.41421356237309437
10
5.0000000000000009
20
38
10
5
20
37
42
0.41421356237309537
0
LWPOLYLINE
5
104
100
AcDbEntity
8
0
100
AcDbPolyline
90
8
70
1
43
0.0
10
47
20
35
10
72.999999999999986
20
35
42
0.41421356237309509
10
75
20
37
10
75
20
38
42
0.41421356237309509
10
72.999999999999986
20
40
10
47
20
40
42
0.41421356237309437
10
45
20
38
10
45
20
37
42
0.41421356237309509
0
LWPOLYLINE
5
105
100
AcDbEntity
8
0
100
AcDbPolyline
90
8
70
1
43
0.0
10
87
20
35
10
112.99999999999999
20
35
42
0.41421356237309509
10
115
20
37
10
115
20
38
42
0.41421356237309509
10
112.99999999999999
20
40
10
87
20
40
42
0.41421356237309437
10
85
20
38
10
85
20
37
42
0.41421356237309509
0
LWPOLYLINE
5
106
100
AcDbEntity
8
0
100
AcDbPolyline
90
8
70
1
43
0.0
10
7.0000000000000018
20
60
10
32.999999999999986
20
60
42
0.4142135623730957
10
34.999999999999993
20
62
10
35.000000000000007
20
63
42
0.41421356237309509
10
33
20
65
10
7
20
65
42
0.4142135623730937
10
5.0000000000000009
20
63.000000000000007
10
5
20
62
42
0.41421356237309537
0
LWPOLYLINE
5
107
100
AcDbEntity
8
0
100
AcDbPolyline
90
8
70
1
43
0.0
10
47
20
60
10
72.999999999999986
20
60
42
0.41421356237309509
10
75
20
62
10
75
20
63
42
0.41421356237309509
10
72.999999999999986
20
65
10
47
20
65
42
0.4142135623730937
10
45
20
63.000000000000007
10
45
20
62
42
0.41421356237309509
0
LWPOLYLINE
5
108
100
AcDbEntity
8
0
100
AcDbPolyline
90
8
70
1
43
0.0
10
87
20
60
10
112.99999999999999
20
60
42
0.41421356237309509
10
115
20
62
10
115
20
63
42
0.41421356237309509
10
112.99999999999999
20
65
10
87
20
65
42
0.4142135623730937
10
85
20
63.000000000000007
10
85
20
62
42
0.41421356237309509
0
LWPOLYLINE
5
109
100
AcDbEntity
8
0
100
AcDbPolyline
90
8
70
1
43
0.0
10
7.0000000000000018
20
85
10
32.999999999999986
20
85
42
0.4142135623730957
10
34.999999999999993
20
87
10
35.000000000000007
20
88
42
0.41421356237309509
10
33
20
90
10
7
20
90
42
0.41421356237309509
10
5.0000000000000009
20
88
10
5
20
87
42
0.41421356237309537
0
LWPOLYLINE
5
110
100
AcDbEntity
8
0
100
AcDbPolyline
90
8
70
1
43
0.0
10
47
20
85
10
72.999999999999986
20
85
42
0.41421356237309509
10
75
20
87
10
75
20
88
42
0.41421356237309509
10
72.999999999999986
20
90
10
47
20
90
42
0.41421356237309509
10
45
20
88
10
45
20
87
42
0.41421356237309509
0
LWPOLYLINE
5
111
100
AcDbEntity
8
0
100
AcDbPolyline
90
8
70
1
43
0.0
10
87
20
85
10
112.99999999999999
20
85
42
0.41421356237309509
10
115
20
87
10
115
20
88
42
0.41421356237309509
10
112.99999999999999
20
90
10
87
20
90
42
0.41421356237309509
10
85
20
88
10
85
20
87
42
0.41421356237309509
0
LWPOLYLINE
5
112
100
AcDbEntity
8
0
100
AcDbPolyline
90
8
70
1
43
0.0
10
7.0000000000000018
20
110
10
32.999999999999986
20
110
42
0.4142135623730957
10
34.999999999999993
20
112
10
35.000000000000007
20
113
42
0.41421356237309509
10
33
20
115
10
7
20
115
42
0.41421356237309509
10
5.0000000000000009
20
113
10
5
20
112
42
0.41421356237309537
0
LWPOLYLINE
5
113
100
AcDbEntity
8
0
100
AcDbPolyline
90
8
70
1
43
0.0
10
47
20
110
10
72.999999999999986
20
110
42
0.41421356237309509
10
75
20
112
10
75
20
113
42
0.41421356237309509
10
72.999999999999986
20
115
10
47
20
115
42
0.41421356237309509
10
45
20
113
10
45
20
112
42
0.41421356237309509
0
LWPOLYLINE
5
114
100
AcDbEntity
8
0
100
AcDbPolyline
90
8
70
1
43
0.0
10
87
20
110
10
112.99999999999999
20
110
42
0.41421356237309509
10
115
20
112
10
115
20
113
42
0.41421356237309509
10
112.99999999999999
20
115
10
87
20
115
42
0.41421356237309509
10
85
20
113
10
85
20
112
42
0.41421356237309509
0
LWPOLYLINE
5
115
100
AcDbEntity
8
0
100
AcDbPolyline
90
8
70
1
43
0.0
10
7.0000000000000018
20
135
10
32.999999999999986
20
135
42
0.4142135623730957
10
34.999999999999993
20
137
10
35.000000000000007
20
138
42
0.41421356237309509
10
33
20
140
10
7
20
140
42
0.41421356237309509
10
5.0000000000000009
20
138
10
5
20
137
42
0.41421356237309537
0
LWPOLYLINE
5
116
100
AcDbEntity
8
0
100
AcDbPolyline
90
8
70
1
43
0.0
10
47
20
135
10
72.999999999999986
20
135
42
0.41421356237309509
10
75
20
137
10
75
20
138
42
0.41421356237309509
10
72.999999999999986
20
140
10
47
20
140
42
0.41421356237309509
10
45
20
138
10
45
20
137
42
0.41421356237309509
0
LWPOLYLINE
5
117
100
AcDbEntity
8
0
100
AcDbPolyline
90
8
70
1
43
0.0
10
87
20
135
10
112.99999999999999
20
135
42
0.41421356237309509
10
115
20
137
10
115
20
138
42
0.41421356237309509
10
112.99999999999999
20
140
10
87
20
140
42
0.41421356237309509
10
85
20
138
10
85
20
137
42
0.41421356237309509
0
LINE
5
118
100
AcDbEntity
8
0
100
AcDbLine
10
-14.96141086819792
20
-15.000000000000004
30
0
11
135
21
-14.999999999999991
31
0
0
LINE
5
119
100
AcDbEntity
8
0
100
AcDbLine
10
135
20
-14.999999999999991
30
0
11
135
21
165.35040669466798
31
0
0
LINE
5
120
100
AcDbEntity
8
0
100
AcDbLine
10
135
20
165.00413518072315
30
0
11
-15.011015941188077
21
164.96278603538582
31
0
0
LINE
5
121
100
AcDbEntity
8
0
100
AcDbLine
10
-15.011015941188077
20
164.96278603538582
30
0
11
-14.96141086819792
21
-15.000000000000004
31
0
0
ENDSEC
0
SECTION
2
OBJECTS
0
DICTIONARY
5
C
100
AcDbDictionary
3
ACAD_GROUP
350
D
3
ACAD_MLINESTYLE
350
17
0
DICTIONARY
5
D
100
AcDbDictionary
0
DICTIONARY
5
1A
330
C
100
AcDbDictionary
0
DICTIONARY
5
17
100
AcDbDictionary
0
ENDSEC
0
EOF
